<select name="study_year">
	  <option value="1">1</option>
	  <option value="2">2</option>
	  <option value="3">3</option>
	  <option value="4">4</option>
	  <option value="5">5</option>
	  <option value="5">6</option>
</select>